Individual3JL
…
library(readxl)
library(ggplot2)
library(dplyr)
df <- readxl::read_xls('./GSS.xls')

## Warning in read_fun(path = enc2native(normalizePath(path)), sheet_i = sheet, :
## Expecting numeric in A64817 / R64817C1: got 'Source'

## Warning in read_fun(path = enc2native(normalizePath(path)), sheet_i = sheet, : Expecting numeric in B64817 / R64817C2: got 'Data collection: General Social Survey
## Case Selection: all cases'

df

## # A tibble: 64,816 x 9
##    `Gss year for t `Respondent id  `Number of hour `Marital status`
##               <dbl>            <dbl> <chr>            <chr>           
##  1             1972                1 Not applicable   Never married   
##  2             1972                2 Not applicable   Married         
##  3             1972                3 Not applicable   Married         
##  4             1972                4 Not applicable   Married         
##  5             1972                5 Not applicable   Married         
##  6             1972                6 Not applicable   Never married   
##  7             1972                7 Not applicable   Divorced        
##  8             1972                8 Not applicable   Never married   
##  9             1972                9 Not applicable   Never married   
## 10             1972               10 Not applicable   Married         
## #  with 64,806 more rows, and 5 more variables: `Highest year of school
## #   completed` <chr>, `Political party affiliation` <chr>, `Belief in life
## #   after death` <chr>, `General happiness` <chr>, `Ballot used for
## #   interview` <chr>
…
pa %>% count(Marital_status)

## # A tibble: 56 x 3
## # Groups:   Political_party_affiliation [10]
##    Political_party_affiliation Marital_status     n
##    <chr>                       <fct>          <int>
##  1 Don't know                  Never married      1
##  2 Don't know                  Married            6
##  3 Don't know                  Widowed            1
##  4 Ind,near dem                No answer          1
##  5 Ind,near dem                Never married   1670
##  6 Ind,near dem                Divorced         803
##  7 Ind,near dem                Married         3203
##  8 Ind,near dem                Separated        193
##  9 Ind,near dem                Widowed          378
## 10 Ind,near rep                Never married    983
## #  with 46 more rows
…
