Team.Rmd
…
tail(names(sort(table(party$Political.party.affiliation))), 1)

## [1] "Not str democrat"

# getting numerical count
party %>% count(Marital.status)

## # A tibble: 56 x 3
## # Groups:   Political.party.affiliation [10]
##    Political.party.affiliation Marital.status     n
##    <chr>                       <chr>          <int>
##  1 Don't know                  Married            6
##  2 Don't know                  Never married      1
##  3 Don't know                  Widowed            1
##  4 Ind,near dem                Divorced         803
##  5 Ind,near dem                Married         3203
##  6 Ind,near dem                Never married   1670
##  7 Ind,near dem                No answer          1
##  8 Ind,near dem                Separated        193
##  9 Ind,near dem                Widowed          378
## 10 Ind,near rep                Divorced         589
## #  with 46 more rows
…
